{
  "name": "mb",
  "css_prefix_text": "icon-",
  "css_use_suffix": false,
  "hinting": true,
  "units_per_em": 1000,
  "ascent": 850,
  "glyphs": [
    {
      "uid": "b89d4f9c40feef06ad3b2e121f95c60b",
      "css": "torrent",
      "code": 59392,
      "src": "elusive"
    },
    {
      "uid": "990d39e5b7e9750c55d2593b1cc61a0a",
      "css": "ext",
      "code": 59394,
      "src": "elusive"
    },
    {
      "uid": "7acc2dfe18c6f4548626696fab27ba8a",
      "css": "play",
      "code": 59395,
      "src": "elusive"
    },
    {
      "uid": "c0a07aca383ff2a164a4d691fa46e35c",
      "css": "left",
      "code": 59393,
      "src": "elusive"
    },
    {
      "uid": "dc4a03854ef986d64565143bea4241aa",
      "css": "right",
      "code": 59408,
      "src": "elusive"
    },
    {
      "uid": "499b745a2e2485bdd059c3a53d048e5f",
      "css": "cancel",
      "code": 59396,
      "src": "elusive"
    },
    {
      "uid": "05a2f4c4839012434774cc1ceb4c0f9b",
      "css": "dl",
      "code": 59397,
      "src": "elusive"
    },
    {
      "uid": "798f480ad47c7c7fa6c64ece88ea2180",
      "css": "github",
      "code": 59398,
      "src": "elusive"
    },
    {
      "uid": "26969cfbd811730075e4c657cc9fda2a",
      "css": "twitter",
      "code": 59399,
      "src": "elusive"
    },
    {
      "uid": "1a14e43d8e27f5b63fb418b586a2ade3",
      "css": "certificate",
      "code": 59400,
      "src": "elusive"
    },
    {
      "uid": "711fdb6caa365d5b69d4a72da2009cf6",
      "css": "exclamation",
      "code": 59401,
      "src": "elusive"
    },
    {
      "uid": "0464d6f35a7fe587434173f42ddace88",
      "css": "thumbs-up",
      "code": 59402,
      "src": "elusive"
    },
    {
      "uid": "3849753858193b4d6e07afa834aff979",
      "css": "thumbs-down",
      "code": 59403,
      "src": "elusive"
    },
    {
      "uid": "e45a3da2ebde8bc8e30a873f3bd51f30",
      "css": "seen",
      "code": 59404,
      "src": "elusive"
    },
    {
      "uid": "829c06a0a3b73b02a6224f4bbb73d99c",
      "css": "home",
      "code": 59412,
      "src": "elusive"
    },
    {
      "uid": "599d6c088f4a1c64611b989459d65f6b",
      "css": "lightbulb",
      "code": 59405,
      "src": "elusive"
    },
    {
      "uid": "d881e6436253ef6cffe0f3fb10562643",
      "css": "rss",
      "code": 59406,
      "src": "elusive"
    }
  ]
}